Data Structures, Summaries, and Visualisations for Missing Data • naniar
…
Data Structures

naniar provides a data structure for working with missing data, the shadow matrix (Swayne and Buja, 1998). The shadow matrix is the same dimension as the data, and consists of binary indicators of missingness of data values, where missing is represented as “NA”, and not missing is represented as “!NA”, and variable names are kep the same, with the added suffix “_NA” to the variables.

head(airquality)
#>   Ozone Solar.R Wind Temp Month Day
#> 1    41     190  7.4   67     5   1
#> 2    36     118  8.0   72     5   2
#> 3    12     149 12.6   74     5   3
#> 4    18     313 11.5   62     5   4
#> 5    NA      NA 14.3   56     5   5
#> 6    28      NA 14.9   66     5   6

as_shadow(airquality)
#> # A tibble: 153 × 6
#>    Ozone_NA Solar.R_NA Wind_NA Temp_NA Month_NA Day_NA
#>    <fct>    <fct>      <fct>   <fct>   <fct>    <fct> 
#>  1 !NA      !NA        !NA     !NA     !NA      !NA   
#>  2 !NA      !NA        !NA     !NA     !NA      !NA   
#>  3 !NA      !NA        !NA     !NA     !NA      !NA   
#>  4 !NA      !NA        !NA     !NA     !NA      !NA   
#>  5 NA       NA         !NA     !NA     !NA      !NA   
#>  6 !NA      NA         !NA     !NA     !NA      !NA   
#>  7 !NA      !NA        !NA     !NA     !NA      !NA   
#>  8 !NA      !NA        !NA     !NA     !NA      !NA   
#>  9 !NA      !NA        !NA     !NA     !NA      !NA   
#> 10 NA       !NA        !NA     !NA     !NA      !NA   
#> # ℹ 143 more rows

Binding the shadow data to the data you help keep better track of the missing values. This format is called “nabular”, a portmanteau of NA and tabular. You can bind the shadow to the data using bind_shadow or nabular:

bind_shadow(airquality)
#> # A tibble: 153 × 12
#>    Ozone Solar.R  Wind  Temp Month   Day Ozone_NA Solar.R_NA Wind_NA Temp_NA
#>    <int>   <int> <dbl> <int> <int> <int> <fct>    <fct>      <fct>   <fct>  
#>  1    41     190   7.4    67     5     1 !NA      !NA        !NA     !NA    
#>  2    36     118   8      72     5     2 !NA      !NA        !NA     !NA    
#>  3    12     149  12.6    74     5     3 !NA      !NA        !NA     !NA    
#>  4    18     313  11.5    62     5     4 !NA      !NA        !NA     !NA    
#>  5    NA      NA  14.3    56     5     5 NA       NA         !NA     !NA    
#>  6    28      NA  14.9    66     5     6 !NA      NA         !NA     !NA    
#>  7    23     299   8.6    65     5     7 !NA      !NA        !NA     !NA    
#>  8    19      99  13.8    59     5     8 !NA      !NA        !NA     !NA    
#>  9     8      19  20.1    61     5     9 !NA      !NA        !NA     !NA    
#> 10    NA     194   8.6    69     5    10 NA       !NA        !NA     !NA    
#> # ℹ 143 more rows
#> # ℹ 2 more variables: Month_NA <fct>, Day_NA <fct>
nabular(airquality)
#> # A tibble: 153 × 12
#>    Ozone Solar.R  Wind  Temp Month   Day Ozone_NA Solar.R_NA Wind_NA Temp_NA
#>    <int>   <int> <dbl> <int> <int> <int> <fct>    <fct>      <fct>   <fct>  
#>  1    41     190   7.4    67     5     1 !NA      !NA        !NA     !NA    
#>  2    36     118   8      72     5     2 !NA      !NA        !NA     !NA    
#>  3    12     149  12.6    74     5     3 !NA      !NA        !NA     !NA    
#>  4    18     313  11.5    62     5     4 !NA      !NA        !NA     !NA    
#>  5    NA      NA  14.3    56     5     5 NA       NA         !NA     !NA    
#>  6    28      NA  14.9    66     5     6 !NA      NA         !NA     !NA    
#>  7    23     299   8.6    65     5     7 !NA      !NA        !NA     !NA    
#>  8    19      99  13.8    59     5     8 !NA      !NA        !NA     !NA    
#>  9     8      19  20.1    61     5     9 !NA      !NA        !NA     !NA    
#> 10    NA     194   8.6    69     5    10 NA       !NA        !NA     !NA    
#> # ℹ 143 more rows
#> # ℹ 2 more variables: Month_NA <fct>, Day_NA <fct>
…
For example, we can look at the number and percent of missings in each case and variable with miss_var_summary(), and miss_case_summary(), which both return output ordered by the number of missing values.

miss_var_summary(airquality)
#> # A tibble: 6 × 3
#>   variable n_miss pct_miss
#>   <chr>     <int>    <num>
#> 1 Ozone        37    24.2 
#> 2 Solar.R       7     4.58
#> 3 Wind          0     0   
#> 4 Temp          0     0   
#> 5 Month         0     0   
#> 6 Day           0     0
miss_case_summary(airquality)
#> # A tibble: 153 × 3
#>     case n_miss pct_miss
#>    <int>  <int>    <dbl>
#>  1     5      2     33.3
#>  2    27      2     33.3
#>  3     6      1     16.7
#>  4    10      1     16.7
#>  5    11      1     16.7
#>  6    25      1     16.7
#>  7    26      1     16.7
#>  8    32      1     16.7
#>  9    33      1     16.7
#> 10    34      1     16.7
#> # ℹ 143 more rows
You could also group_by() to work out the number of missings in each variable across the levels within it.

library(dplyr)
#> 
#> Attaching package: 'dplyr'
#> The following objects are masked from 'package:stats':
#> 
#>     filter, lag
#> The following objects are masked from 'package:base':
#> 
#>     intersect, setdiff, setequal, union
airquality %>%
  group_by(Month) %>%
  miss_var_summary()
#> # A tibble: 25 × 4
#> # Groups:   Month [5]
#>    Month variable n_miss pct_miss
#>    <int> <chr>     <int>    <num>
#>  1     5 Ozone         5     16.1
#>  2     5 Solar.R       4     12.9
#>  3     5 Wind          0      0  
#>  4     5 Temp          0      0  
#>  5     5 Day           0      0  
#>  6     6 Ozone        21     70  
#>  7     6 Solar.R       0      0  
#>  8     6 Wind          0      0  
#>  9     6 Temp          0      0  
#> 10     6 Day           0      0  
#> # ℹ 15 more rows
…
