…
# summary information (counts, percentrages) of missing data for variables and cases
summary_missing_var(airquality)
#> # A tibble: 6 x 3
#>   variables n_missing   percent
#>       <chr>     <int>     <dbl>
#> 1     Ozone        37 24.183007
#> 2   Solar.R         7  4.575163
#> 3      Wind         0  0.000000
#> 4      Temp         0  0.000000
#> 5     Month         0  0.000000
#> 6       Day         0  0.000000
summary_missing_case(airquality)
#> # A tibble: 153 x 3
#>     case n_missing  percent
#>    <int>     <int>    <dbl>
#> 1      1         0  0.00000
#> 2      2         0  0.00000
#> 3      3         0  0.00000
#> 4      4         0  0.00000
#> 5      5         2 33.33333
#> 6      6         1 16.66667
#> 7      7         0  0.00000
#> 8      8         0  0.00000
#> 9      9         0  0.00000
#> 10    10         1 16.66667
#> # ... with 143 more rows
```
…
