Summarise the number of missings for a given repeating span on a variable — miss_var_span • naniar
…
dataframe with variables n_miss, n_complete, prop_miss, and
prop_complete, which describe the number, or proportion of missing or
complete values within that given time span. The final variable,
n_in_span states how many observations are in the span.

    See also

    pct_miss_case() prop_miss_case() pct_miss_var() prop_miss_var() pct_complete_case() prop_complete_case() pct_complete_var() prop_complete_var() miss_prop_summary() miss_case_summary() miss_case_table() miss_summary() miss_var_prop() miss_var_run() miss_var_span() miss_var_summary() miss_var_table()

    Examples

miss_var_span(data = pedestrian,
             var = hourly_counts,
             span_every = 168)
#> # A tibble: 225 × 6
#>    span_counter n_miss n_complete prop_miss prop_complete n_in_span
#>           <int>  <int>      <int>     <dbl>         <dbl>     <int>
#>  1            1      0        168         0             1       168
#>  2            2      0        168         0             1       168
#>  3            3      0        168         0             1       168
#>  4            4      0        168         0             1       168
#>  5            5      0        168         0             1       168
#>  6            6      0        168         0             1       168
#>  7            7      0        168         0             1       168
#>  8            8      0        168         0             1       168
#>  9            9      0        168         0             1       168
#> 10           10      0        168         0             1       168
#> # ℹ 215 more rows
…
