Replace all values with NA where a certain condition is met — replace_with_na_all • naniar
…
# where works with functions
replace_with_na_all(airquality, ~ sqrt(.x) < 5)
#> # A tibble: 153 x 6
#>    Ozone Solar.R  Wind  Temp Month   Day
#>    <int>   <int> <dbl> <int> <int> <int>
#>  1    41     190    NA    67    NA    NA
#>  2    36     118    NA    72    NA    NA
#>  3    NA     149    NA    74    NA    NA
#>  4    NA     313    NA    62    NA    NA
#>  5    NA      NA    NA    56    NA    NA
#>  6    28      NA    NA    66    NA    NA
#>  7    NA     299    NA    65    NA    NA
#>  8    NA      99    NA    59    NA    NA
#>  9    NA      NA    NA    61    NA    NA
#> 10    NA     194    NA    69    NA    NA
#> # … with 143 more rows
…
