The Behavioral Risk Factor Surveillance System (BRFSS) Survey Data, 2009. — riskfactors • naniar
…
# Look at the missingness in the variables
miss_var_summary(riskfactors)
#> # A tibble: 34 x 3
#>    variable      n_miss pct_miss
#>    <chr>          <int>    <dbl>
#>  1 pregnant         215    87.8 
#>  2 smoke_stop       212    86.5 
#>  3 smoke_last       161    65.7 
#>  4 drink_average    135    55.1 
#>  5 drink_days       134    54.7 
#>  6 smoke_days       128    52.2 
#>  7 health_poor      113    46.1 
#>  8 bmi               11     4.49
#>  9 weight_lbs        10     4.08
#> 10 diet_fruit         8     3.27
#> # … with 24 more rows
…
