Data Structures, Summaries, and Visualisations for Missing Data • naniar
…
Another approach can be to use Univariate plots split by missingness. We can do this using the bind_shadow() argument to place the data and shadow side by side. This allows for us to examine univariate distributions according to the presence or absence of another variable.

aq_shadow <- bind_shadow(airquality)

aq_shadow
#> # A tibble: 153 x 12
#>    Ozone Solar.R  Wind  Temp Month   Day Ozone_NA Solar.R_NA Wind_NA
#>    <int>   <int> <dbl> <int> <int> <int>   <fctr>     <fctr>  <fctr>
#>  1    41     190   7.4    67     5     1      !NA        !NA     !NA
#>  2    36     118   8.0    72     5     2      !NA        !NA     !NA
#>  3    12     149  12.6    74     5     3      !NA        !NA     !NA
#>  4    18     313  11.5    62     5     4      !NA        !NA     !NA
#>  5    NA      NA  14.3    56     5     5       NA         NA     !NA
#>  6    28      NA  14.9    66     5     6      !NA         NA     !NA
#>  7    23     299   8.6    65     5     7      !NA        !NA     !NA
#>  8    19      99  13.8    59     5     8      !NA        !NA     !NA
#>  9     8      19  20.1    61     5     9      !NA        !NA     !NA
#> 10    NA     194   8.6    69     5    10       NA        !NA     !NA
#> # ... with 143 more rows, and 3 more variables: Temp_NA <fctr>,
#> #   Month_NA <fctr>, Day_NA <fctr>
…
For example, we can look at the number and percent of missings in each case and variable with miss_var_summary(), and miss_case_summary(), which both return output ordered by the number of missing values.

miss_var_summary(airquality)
#> # A tibble: 6 x 3
#>   variable n_missing   percent
#>      <chr>     <int>     <dbl>
#> 1    Ozone        37 24.183007
#> 2  Solar.R         7  4.575163
#> 3     Wind         0  0.000000
#> 4     Temp         0  0.000000
#> 5    Month         0  0.000000
#> 6      Day         0  0.000000
miss_case_summary(airquality)
#> # A tibble: 153 x 3
#>     case n_missing  percent
#>    <int>     <int>    <dbl>
#>  1     5         2 33.33333
#>  2    27         2 33.33333
#>  3     6         1 16.66667
#>  4    10         1 16.66667
#>  5    11         1 16.66667
#>  6    25         1 16.66667
#>  7    26         1 16.66667
#>  8    32         1 16.66667
#>  9    33         1 16.66667
#> 10    34         1 16.66667
#> # ... with 143 more rows
You could also group_by() to work out the number of missings in each variable across the levels within it.

library(dplyr)
#> 
#> Attaching package: 'dplyr'
#> The following objects are masked from 'package:stats':
#> 
#>     filter, lag
#> The following objects are masked from 'package:base':
#> 
#>     intersect, setdiff, setequal, union
airquality %>%
  group_by(Month) %>%
  miss_var_summary()
#> # A tibble: 25 x 4
#>    Month variable n_missing  percent
#>    <int>    <chr>     <int>    <dbl>
#>  1     5    Ozone         5 16.12903
#>  2     5  Solar.R         4 12.90323
#>  3     5     Wind         0  0.00000
#>  4     5     Temp         0  0.00000
#>  5     5      Day         0  0.00000
#>  6     6    Ozone        21 70.00000
#>  7     6  Solar.R         0  0.00000
#>  8     6     Wind         0  0.00000
#>  9     6     Temp         0  0.00000
#> 10     6      Day         0  0.00000
#> # ... with 15 more rows
…
