Getting Started with naniar • naniar
…
Illustration of data structures for facilitating visualisation of missings and not missings

The shadow functions provide a way to keep track of missing values. The as_shadow function creates a dataframe with the same set of columns, but with the column names added a suffix _NA

as_shadow(airquality)

## # A tibble: 153 x 6
##    Ozone_NA Solar.R_NA Wind_NA Temp_NA Month_NA Day_NA
##      <fctr>     <fctr>  <fctr>  <fctr>   <fctr> <fctr>
##  1      !NA        !NA     !NA     !NA      !NA    !NA
##  2      !NA        !NA     !NA     !NA      !NA    !NA
##  3      !NA        !NA     !NA     !NA      !NA    !NA
##  4      !NA        !NA     !NA     !NA      !NA    !NA
##  5       NA         NA     !NA     !NA      !NA    !NA
##  6      !NA         NA     !NA     !NA      !NA    !NA
##  7      !NA        !NA     !NA     !NA      !NA    !NA
##  8      !NA        !NA     !NA     !NA      !NA    !NA
##  9      !NA        !NA     !NA     !NA      !NA    !NA
## 10       NA        !NA     !NA     !NA      !NA    !NA
## # ... with 143 more rows
…
miss_case_prop and miss_case_pct return numeric value describing the proportion or percent of missing values in the dataframe.

miss_case_prop(airquality)

## [1] 0.2745098

miss_case_pct(airquality)

## [1] 27.45098

miss_case_summary returns a numeric value that describes the number of missings in a given case (aka row), the percent of missings in that row.

miss_case_summary(airquality)

## # A tibble: 153 x 3
##     case n_missing  percent
##    <int>     <int>    <dbl>
##  1     5         2 33.33333
##  2    27         2 33.33333
##  3     6         1 16.66667
##  4    10         1 16.66667
##  5    11         1 16.66667
##  6    25         1 16.66667
##  7    26         1 16.66667
##  8    32         1 16.66667
##  9    33         1 16.66667
## 10    34         1 16.66667
## # ... with 143 more rows
…
There are also summary functions for exploring missings that occur over a particular span or period of the dataset, or the number of missings in a single run:

miss_var_run(), and

miss_var_span()

miss_var_run can be particularly useful in time series data, as it allows you to provide summaries for the number of missings or complete values in a single run. The function miss_var_run() provides a data.frame of the run length of missings and complete values. To explore this function we will use the built-in dataset, pedestrian, which contains hourly counts of pedestrians from four locations around Melbourne, Australia, from 2016.

To use miss_var_run, you specify the variable that you want to explore the runs of missingness for, in this case, hourly_counts:

miss_var_run(pedestrian,
             hourly_counts)

## # A tibble: 35 x 2
##    run_length    is_na
##         <int>    <chr>
##  1       6628 complete
##  2          1  missing
##  3       5250 complete
##  4        624  missing
##  5       3652 complete
##  6          1  missing
##  7       1290 complete
##  8        744  missing
##  9       7420 complete
## 10          1  missing
## # ... with 25 more rows

miss_var_span() is used to determine the number of missings over a specified repeating span of rows in variable of a dataframe. Similar to miss_var_run(), you specify the variable that you wish to explore, you then also specify the size of the span with the span_every argument.

miss_var_span(pedestrian,
              hourly_counts,
              span_every = 100)

## # A tibble: 377 x 5
##    span_counter n_miss n_complete prop_miss prop_complete
##           <int>  <int>      <dbl>     <dbl>         <dbl>
##  1            1      0        100         0             1
##  2            2      0        100         0             1
##  3            3      0        100         0             1
##  4            4      0        100         0             1
##  5            5      0        100         0             1
##  6            6      0        100         0             1
##  7            7      0        100         0             1
##  8            8      0        100         0             1
##  9            9      0        100         0             1
## 10           10      0        100         0             1
## # ... with 367 more rows
…
