Building on ggplot2 for exploration of missing values • naniar
…
# Proportion of variables that contain any missing values
miss_var_pct(airquality)

## [1] 33.33333

 # Proportion of cases that contain any missing values
miss_case_pct(airquality)

## [1] 27.45098

We can also look at the number and percent of missings in each case and variable with summary_missing_case, and summary_missing_var.

miss_case_summary(airquality)

## # A tibble: 153 × 3
##     case n_missing  percent
##    <int>     <int>    <dbl>
## 1      1         0  0.00000
## 2      2         0  0.00000
## 3      3         0  0.00000
## 4      4         0  0.00000
## 5      5         2 33.33333
## 6      6         1 16.66667
## 7      7         0  0.00000
## 8      8         0  0.00000
## 9      9         0  0.00000
## 10    10         1 16.66667
## # ... with 143 more rows
…
