Gallery of Missing Data Visualisations • naniar
…
## The following objects are masked from 'package:stats':
## 
##     filter, lag

## The following objects are masked from 'package:base':
## 
##     intersect, setdiff, setequal, union

riskfactors %>%
  group_by(marital) %>%
  miss_var_summary()

## # A tibble: 231 x 4
##    marital      variable n_missing   percent
##     <fctr>         <chr>     <int>     <dbl>
##  1 Married    smoke_stop       120 91.603053
##  2 Married      pregnant       117 89.312977
##  3 Married    smoke_last        84 64.122137
##  4 Married    smoke_days        73 55.725191
##  5 Married drink_average        68 51.908397
##  6 Married   health_poor        67 51.145038
##  7 Married    drink_days        67 51.145038
##  8 Married    weight_lbs         6  4.580153
##  9 Married           bmi         6  4.580153
## 10 Married    diet_fruit         4  3.053435
## # ... with 221 more rows
…
miss_case_cumsum(riskfactors)

## # A tibble: 245 x 3
##     case n_missing n_missing_cumsum
##    <int>     <int>            <int>
##  1     1         6                6
##  2     2         6               12
##  3     3         7               19
##  4     4        12               31
##  5     5         5               36
##  6     6         7               43
##  7     7         5               48
##  8     8         4               52
##  9     9         4               56
## 10    10        11               67
## # ... with 235 more rows
…
