Mechanics of shadow_shift in ggplot2 • naniar
…
df.shadow <- as.data.frame(is.na.data.frame(df))

# make a function for creating a true/false shadow matrix
shadow_df <- function(x){
  x %>%
    is.na.data.frame %>%
    as.data.frame %>% 
    as_data_frame
}

# remember that TRUE = missing
shadow_df(df)

## # A tibble: 30 × 10
##       ID  Race   Age   Sex  Hour    IQ Height  Died Scoring Smoker
##    <lgl> <lgl> <lgl> <lgl> <lgl> <lgl>  <lgl> <lgl>   <lgl>  <lgl>
## 1  FALSE  TRUE FALSE  TRUE FALSE FALSE   TRUE FALSE   FALSE  FALSE
## 2  FALSE  TRUE  TRUE FALSE FALSE  TRUE   TRUE  TRUE   FALSE   TRUE
## 3  FALSE FALSE  TRUE FALSE FALSE  TRUE   TRUE  TRUE   FALSE  FALSE
## 4  FALSE  TRUE FALSE  TRUE  TRUE FALSE  FALSE FALSE    TRUE  FALSE
## 5  FALSE  TRUE FALSE FALSE  TRUE FALSE   TRUE FALSE    TRUE  FALSE
## 6  FALSE FALSE  TRUE FALSE  TRUE FALSE   TRUE  TRUE    TRUE  FALSE
## 7  FALSE  TRUE FALSE FALSE FALSE  TRUE  FALSE FALSE   FALSE  FALSE
## 8  FALSE  TRUE  TRUE FALSE  TRUE FALSE   TRUE FALSE   FALSE  FALSE
## 9  FALSE FALSE FALSE FALSE  TRUE  TRUE  FALSE  TRUE    TRUE  FALSE
## 10 FALSE FALSE FALSE FALSE FALSE FALSE  FALSE FALSE   FALSE  FALSE
## # ... with 20 more rows
…
