Add a column describing presence of any missing values — add_any_miss • naniar
…
    Details

    By default the
prefix "any_miss" is used, but this can be changed in the label argument.

    See also

    bind_shadow() add_any_miss() add_label_missings() add_label_shadow() add_miss_cluster() add_n_miss() add_prop_miss() add_shadow_shift() cast_shadow()

    Examples

airquality %>% add_any_miss()
#> # A tibble: 153 x 7
#>    Ozone Solar.R  Wind  Temp Month   Day any_miss_all
#>    <int>   <int> <dbl> <int> <int> <int> <chr>       
#>  1    41     190  7.40    67     5     1 complete    
#>  2    36     118  8.00    72     5     2 complete    
#>  3    12     149 12.6     74     5     3 complete    
#>  4    18     313 11.5     62     5     4 complete    
#>  5    NA      NA 14.3     56     5     5 missing     
#>  6    28      NA 14.9     66     5     6 missing     
#>  7    23     299  8.60    65     5     7 complete    
#>  8    19      99 13.8     59     5     8 complete    
#>  9     8      19 20.1     61     5     9 complete    
#> 10    NA     194  8.60    69     5    10 missing     
#> # ... with 143 more rows
airquality %>% add_any_miss(Ozone)
#> # A tibble: 153 x 7
#>    Ozone Solar.R  Wind  Temp Month   Day any_miss_vars
#>    <int>   <int> <dbl> <int> <int> <int> <chr>        
#>  1    41     190  7.40    67     5     1 complete     
#>  2    36     118  8.00    72     5     2 complete     
#>  3    12     149 12.6     74     5     3 complete     
#>  4    18     313 11.5     62     5     4 complete     
#>  5    NA      NA 14.3     56     5     5 missing      
#>  6    28      NA 14.9     66     5     6 complete     
#>  7    23     299  8.60    65     5     7 complete     
#>  8    19      99 13.8     59     5     8 complete     
#>  9     8      19 20.1     61     5     9 complete     
#> 10    NA     194  8.60    69     5    10 missing      
#> # ... with 143 more rows
airquality %>% add_any_miss(Ozone, Solar.R)
#> # A tibble: 153 x 7
#>    Ozone Solar.R  Wind  Temp Month   Day any_miss_vars
#>    <int>   <int> <dbl> <int> <int> <int> <chr>        
#>  1    41     190  7.40    67     5     1 complete     
#>  2    36     118  8.00    72     5     2 complete     
#>  3    12     149 12.6     74     5     3 complete     
#>  4    18     313 11.5     62     5     4 complete     
#>  5    NA      NA 14.3     56     5     5 missing      
#>  6    28      NA 14.9     66     5     6 missing      
#>  7    23     299  8.60    65     5     7 complete     
#>  8    19      99 13.8     59     5     8 complete     
#>  9     8      19 20.1     61     5     9 complete     
#> 10    NA     194  8.60    69     5    10 missing      
#> # ... with 143 more rows
…
