Add a column that tells us which "missingness cluster" a row belongs to — add_miss_cluster • naniar
…
      n_clusters
      numeric the number of clusters you expect. Defaults to 2.

    See also

    bind_shadow() add_any_miss() add_label_missings() add_label_shadow() add_miss_cluster() add_n_miss() add_prop_miss() add_shadow_shift() cast_shadow()

    Examples

add_miss_cluster(airquality)
#> # A tibble: 153 x 7
#>    Ozone Solar.R  Wind  Temp Month   Day miss_cluster
#>    <int>   <int> <dbl> <int> <int> <int>        <int>
#>  1    41     190   7.4    67     5     1            1
#>  2    36     118   8      72     5     2            1
#>  3    12     149  12.6    74     5     3            1
#>  4    18     313  11.5    62     5     4            1
#>  5    NA      NA  14.3    56     5     5            2
#>  6    28      NA  14.9    66     5     6            1
#>  7    23     299   8.6    65     5     7            1
#>  8    19      99  13.8    59     5     8            1
#>  9     8      19  20.1    61     5     9            1
#> 10    NA     194   8.6    69     5    10            2
#> # ... with 143 more rows
add_miss_cluster(airquality, cluster_method = "ward.D")
#> # A tibble: 153 x 7
#>    Ozone Solar.R  Wind  Temp Month   Day miss_cluster
#>    <int>   <int> <dbl> <int> <int> <int>        <int>
#>  1    41     190   7.4    67     5     1            1
#>  2    36     118   8      72     5     2            1
#>  3    12     149  12.6    74     5     3            1
#>  4    18     313  11.5    62     5     4            1
#>  5    NA      NA  14.3    56     5     5            1
#>  6    28      NA  14.9    66     5     6            1
#>  7    23     299   8.6    65     5     7            1
#>  8    19      99  13.8    59     5     8            1
#>  9     8      19  20.1    61     5     9            1
#> 10    NA     194   8.6    69     5    10            2
#> # ... with 143 more rows
add_miss_cluster(airquality, cluster_method = "ward.D", n_clusters = 3)
#> # A tibble: 153 x 7
#>    Ozone Solar.R  Wind  Temp Month   Day miss_cluster
#>    <int>   <int> <dbl> <int> <int> <int>        <int>
#>  1    41     190   7.4    67     5     1            1
#>  2    36     118   8      72     5     2            1
#>  3    12     149  12.6    74     5     3            1
#>  4    18     313  11.5    62     5     4            1
#>  5    NA      NA  14.3    56     5     5            2
#>  6    28      NA  14.9    66     5     6            2
#>  7    23     299   8.6    65     5     7            1
#>  8    19      99  13.8    59     5     8            1
#>  9     8      19  20.1    61     5     9            1
#> 10    NA     194   8.6    69     5    10            3
#> # ... with 143 more rows
add_miss_cluster(airquality, n_clusters = 3)
#> # A tibble: 153 x 7
#>    Ozone Solar.R  Wind  Temp Month   Day miss_cluster
#>    <int>   <int> <dbl> <int> <int> <int>        <int>
#>  1    41     190   7.4    67     5     1            1
#>  2    36     118   8      72     5     2            1
#>  3    12     149  12.6    74     5     3            1
#>  4    18     313  11.5    62     5     4            1
#>  5    NA      NA  14.3    56     5     5            2
#>  6    28      NA  14.9    66     5     6            1
#>  7    23     299   8.6    65     5     7            1
#>  8    19      99  13.8    59     5     8            1
#>  9     8      19  20.1    61     5     9            1
#> 10    NA     194   8.6    69     5    10            3
#> # ... with 143 more rows
…
