Add column containing proportion of missing data values — add_prop_na • naniar
…
airquality %>% add_prop_na(Solar.R)
#> # A tibble: 153 x 7
#>    Ozone Solar.R  Wind  Temp Month   Day prop_na_vars
#>    <int>   <int> <dbl> <int> <int> <int>        <dbl>
#>  1    41     190   7.4    67     5     1            0
#>  2    36     118   8.0    72     5     2            0
#>  3    12     149  12.6    74     5     3            0
#>  4    18     313  11.5    62     5     4            0
#>  5    NA      NA  14.3    56     5     5            1
#>  6    28      NA  14.9    66     5     6            1
#>  7    23     299   8.6    65     5     7            0
#>  8    19      99  13.8    59     5     8            0
#>  9     8      19  20.1    61     5     9            0
#> 10    NA     194   8.6    69     5    10            0
#> # ... with 143 more rows

airquality %>% add_prop_na(Solar.R, Ozone)
#> # A tibble: 153 x 7
#>    Ozone Solar.R  Wind  Temp Month   Day prop_na_vars
#>    <int>   <int> <dbl> <int> <int> <int>        <dbl>
#>  1    41     190   7.4    67     5     1          0.0
#>  2    36     118   8.0    72     5     2          0.0
#>  3    12     149  12.6    74     5     3          0.0
#>  4    18     313  11.5    62     5     4          0.0
#>  5    NA      NA  14.3    56     5     5          1.0
#>  6    28      NA  14.9    66     5     6          0.5
#>  7    23     299   8.6    65     5     7          0.0
#>  8    19      99  13.8    59     5     8          0.0
#>  9     8      19  20.1    61     5     9          0.0
#> 10    NA     194   8.6    69     5    10          0.5
#> # ... with 143 more rows

airquality %>% add_prop_na(Solar.R, Ozone, label = "testing")
#> # A tibble: 153 x 7
#>    Ozone Solar.R  Wind  Temp Month   Day testing_vars
#>    <int>   <int> <dbl> <int> <int> <int>        <dbl>
#>  1    41     190   7.4    67     5     1          0.0
#>  2    36     118   8.0    72     5     2          0.0
#>  3    12     149  12.6    74     5     3          0.0
#>  4    18     313  11.5    62     5     4          0.0
#>  5    NA      NA  14.3    56     5     5          1.0
#>  6    28      NA  14.9    66     5     6          0.5
#>  7    23     299   8.6    65     5     7          0.0
#>  8    19      99  13.8    59     5     8          0.0
#>  9     8      19  20.1    61     5     9          0.0
#> 10    NA     194   8.6    69     5    10          0.5
#> # ... with 143 more rows
…
