Add a shadow column to a dataset — cast_shadow • naniar
…
    Value

    data with the added variable shifted and the suffix _NA

    See also

    cast_shadow_shift(), cast_shadow_shift_label() bind_shadow() add_any_miss() add_label_missings() add_label_shadow() add_miss_cluster() add_prop_miss() add_shadow_shift()

    Examples

airquality %>% cast_shadow(Ozone)
#> # A tibble: 153 x 2
#>    Ozone Ozone_NA
#>    <int> <fct>   
#>  1    41 !NA     
#>  2    36 !NA     
#>  3    12 !NA     
#>  4    18 !NA     
#>  5    NA NA      
#>  6    28 !NA     
#>  7    23 !NA     
#>  8    19 !NA     
#>  9     8 !NA     
#> 10    NA NA      
#> # ... with 143 more rows
airquality %>% cast_shadow(Ozone, Solar.R)
#> # A tibble: 153 x 4
#>    Ozone Solar.R Ozone_NA Solar.R_NA
#>    <int>   <int> <fct>    <fct>     
#>  1    41     190 !NA      !NA       
#>  2    36     118 !NA      !NA       
#>  3    12     149 !NA      !NA       
#>  4    18     313 !NA      !NA       
#>  5    NA      NA NA       NA        
#>  6    28      NA !NA      NA        
#>  7    23     299 !NA      !NA       
#>  8    19      99 !NA      !NA       
#>  9     8      19 !NA      !NA       
#> 10    NA     194 NA       !NA       
#> # ... with 143 more rows
…
