Summarise the missingness in each variable — miss_var_summary • naniar
…
# works with group_by from dplyr
library(dplyr)
airquality %>%
  group_by(Month) %>%
  miss_var_summary()
#> # A tibble: 25 x 5
#>    Month variable n_miss pct_miss n_miss_cumsum
#>    <int>    <chr>  <int>    <dbl>         <int>
#>  1     5    Ozone      5 16.12903             5
#>  2     5  Solar.R      4 12.90323             9
#>  3     5     Wind      0  0.00000             9
#>  4     5     Temp      0  0.00000             9
#>  5     5      Day      0  0.00000             9
#>  6     6    Ozone     21 70.00000            21
#>  7     6  Solar.R      0  0.00000            21
#>  8     6     Wind      0  0.00000            21
#>  9     6     Temp      0  0.00000            21
#> 10     6      Day      0  0.00000            21
#> # ... with 15 more rows
…
