Gallery of Missing Data Visualisations • naniar
…
## The following objects are masked from 'package:stats':
## 
##     filter, lag

## The following objects are masked from 'package:base':
## 
##     intersect, setdiff, setequal, union

riskfactors %>%
  group_by(marital) %>%
  miss_var_summary()

## # A tibble: 231 × 4
## # Groups:   marital [7]
##    marital variable      n_miss pct_miss
##    <fct>   <chr>          <int>    <num>
##  1 Married smoke_stop       120    91.6 
##  2 Married pregnant         117    89.3 
##  3 Married smoke_last        84    64.1 
##  4 Married smoke_days        73    55.7 
##  5 Married drink_average     68    51.9 
##  6 Married health_poor       67    51.1 
##  7 Married drink_days        67    51.1 
##  8 Married weight_lbs         6     4.58
##  9 Married bmi                6     4.58
## 10 Married diet_fruit         4     3.05
## # ℹ 221 more rows
…
