Getting Started with naniar • naniar
…
Illustration of data structures for facilitating
visualisation of missings and not missings

The shadow functions provide a way to keep track of
missing values. The as_shadow function creates a dataframe
with the same set of columns, but with the column names added a suffix
_NA

as_shadow(airquality)

## # A tibble: 153 × 6
##    Ozone_NA Solar.R_NA Wind_NA Temp_NA Month_NA Day_NA
##    <fct>    <fct>      <fct>   <fct>   <fct>    <fct> 
##  1 !NA      !NA        !NA     !NA     !NA      !NA   
##  2 !NA      !NA        !NA     !NA     !NA      !NA   
##  3 !NA      !NA        !NA     !NA     !NA      !NA   
##  4 !NA      !NA        !NA     !NA     !NA      !NA   
##  5 NA       NA         !NA     !NA     !NA      !NA   
##  6 !NA      NA         !NA     !NA     !NA      !NA   
##  7 !NA      !NA        !NA     !NA     !NA      !NA   
##  8 !NA      !NA        !NA     !NA     !NA      !NA   
##  9 !NA      !NA        !NA     !NA     !NA      !NA   
## 10 NA       !NA        !NA     !NA     !NA      !NA   
## # ℹ 143 more rows
…
prop_miss_case(airquality)

## [1] 0.2745098

pct_miss_case(airquality)

## [1] 27.45098

miss_case_summary() returns a numeric value that
describes the number of missings in a given case (aka row), the percent
of missings in that row.

miss_case_summary(airquality)

## # A tibble: 153 × 3
##     case n_miss pct_miss
##    <int>  <int>    <dbl>
##  1     5      2     33.3
##  2    27      2     33.3
##  3     6      1     16.7
##  4    10      1     16.7
##  5    11      1     16.7
##  6    25      1     16.7
##  7    26      1     16.7
##  8    32      1     16.7
##  9    33      1     16.7
## 10    34      1     16.7
## # ℹ 143 more rows
…
To use miss_var_run(), you specify the variable that you
want to explore the runs of missingness for, in this case,
hourly_counts:

miss_var_run(pedestrian,
             hourly_counts)

## # A tibble: 35 × 2
##    run_length is_na   
##         <int> <chr>   
##  1       6628 complete
##  2          1 missing 
##  3       5250 complete
##  4        624 missing 
##  5       3652 complete
##  6          1 missing 
##  7       1290 complete
##  8        744 missing 
##  9       7420 complete
## 10          1 missing 
## # ℹ 25 more rows

miss_var_span() is used to determine the number of
missings over a specified repeating span of rows in variable of a
dataframe. Similar to miss_var_run(), you specify the
variable that you wish to explore, you then also specify the size of the
span with the span_every argument.

miss_var_span(pedestrian,
              hourly_counts,
              span_every = 100)

## # A tibble: 377 × 6
##    span_counter n_miss n_complete prop_miss prop_complete n_in_span
##           <int>  <int>      <int>     <dbl>         <dbl>     <int>
##  1            1      0        100         0             1       100
##  2            2      0        100         0             1       100
##  3            3      0        100         0             1       100
##  4            4      0        100         0             1       100
##  5            5      0        100         0             1       100
##  6            6      0        100         0             1       100
##  7            7      0        100         0             1       100
##  8            8      0        100         0             1       100
##  9            9      0        100         0             1       100
## 10           10      0        100         0             1       100
## # ℹ 367 more rows
…
